{
    "KPlugin": {
        "Authors": [
            {
                "Email": "dhaumann@kde.org",
                "Name": "Dominik Haumann",
                "Name[ar]": "Dominik Haumann",
                "Name[az]": "Dominik Haumann",
                "Name[bg]": "Dominik Haumann",
                "Name[ca@valencia]": "Dominik Haumann",
                "Name[ca]": "Dominik Haumann",
                "Name[cs]": "Dominik Haumann",
                "Name[de]": "Dominik Haumann",
                "Name[en_GB]": "Dominik Haumann",
                "Name[es]": "Dominik Haumann",
                "Name[eu]": "Dominik Haumann",
                "Name[fi]": "Dominik Haumann",
                "Name[fr]": "Dominik Haumann",
                "Name[ia]": "Dominik Haumann",
                "Name[id]": "Dominik Haumann",
                "Name[is]": "Dominik Haumann",
                "Name[it]": "Dominik Haumann",
                "Name[ja]": "Dominik Haumann",
                "Name[ka]": "Dominik Haumann",
                "Name[ko]": "Dominik Haumann",
                "Name[lt]": "Dominik Haumann",
                "Name[nl]": "Dominik Haumann",
                "Name[nn]": "Dominik Haumann",
                "Name[pl]": "Dominik Haumann",
                "Name[pt]": "Dominik Haumann",
                "Name[pt_BR]": "Dominik Haumann",
                "Name[ro]": "Dominik Haumann",
                "Name[ru]": "Dominik Haumann",
                "Name[sk]": "Dominik Haumann",
                "Name[sl]": "Dominik Haumann",
                "Name[sv]": "Dominik Haumann",
                "Name[tr]": "Dominik Haumann",
                "Name[uk]": "Dominik Haumann",
                "Name[vi]": "Dominik Haumann",
                "Name[x-test]": "xxDominik Haumannxx",
                "Name[zh_CN]": "Dominik Haumann",
                "Name[zh_TW]": "Dominik Haumann"
            }
        ],
        "Category": "Utilities",
        "Description": "Shows details about disk quota",
        "Description[ar]": "تظهر تفاصيل حول حصة القرص",
        "Description[az]": "Disk kvotası təfərrüatlarını göstərir",
        "Description[bg]": "Показва подробности за дискова квота",
        "Description[ca@valencia]": "Mostra els detalls de la quota de disc",
        "Description[ca]": "Mostra els detalls de la quota de disc",
        "Description[de]": "Zeigt Details zum Speicherplatzkontingent an",
        "Description[en_GB]": "Shows details about disk quota",
        "Description[es]": "Muestra detalles sobre la cuota de disco",
        "Description[eu]": "Diskoaren kuotari buruzko zehaztasunak erakusten ditu",
        "Description[fi]": "Näyttää levytilarajoitustietoa",
        "Description[fr]": "Affiche des informations détaillées concernant le quota de disques",
        "Description[ia]": "Monstra detalios super quota de disco",
        "Description[id]": "Menampilkan detail tentang quota disk",
        "Description[is]": "Birtir ítarlegar upplýsingar um kvóta á diskaplássi",
        "Description[it]": "Mostra i dettagli relativi alle quote disco",
        "Description[ja]": "ディスククォータの詳細を表示します",
        "Description[ka]": "დისკების კვოტის შესახებ ინფორმაციის ჩვენება",
        "Description[ko]": "디스크 할당량 정보 표시",
        "Description[lt]": "Išsami informacija apie leidžiamą disko duomenų kiekį",
        "Description[nl]": "Toont details van schijfquota",
        "Description[nn]": "Vis informasjon om diskkvotar",
        "Description[pl]": "Pokazuje szczegóły o przydziale dyskowym",
        "Description[pt]": "Mostra detalhes sobre a quota do disco",
        "Description[pt_BR]": "Mostra detalhes sobre a quota do disco",
        "Description[ro]": "Arată detalii despre cota de disc",
        "Description[ru]": "Просмотр дисковых квот",
        "Description[sk]": "Zobrazí podrobnosti o diskovej kvóte",
        "Description[sl]": "Prikaži podrobnosti diskovne kvote",
        "Description[sv]": "Visar information om diskkvot",
        "Description[tr]": "Disk kotası hakkında ayrıntılar göster",
        "Description[uk]": "Показати дані щодо квот на диску",
        "Description[vi]": "Hiện các chi tiết về hạn ngạch đĩa",
        "Description[x-test]": "xxShows details about disk quotaxx",
        "Description[zh_CN]": "显示磁盘配额详情",
        "Description[zh_TW]": "顯示磁碟配額詳細資訊",
        "EnabledByDefault": false,
        "Icon": "disk-quota",
        "Id": "org.kde.plasma.diskquota",
        "License": "LGPL",
        "Name": "Disk Quota",
        "Name[ar]": "حصّة القرص",
        "Name[az]": "Disk kvotası",
        "Name[bg]": "Дискова квота",
        "Name[ca@valencia]": "Quota de disc",
        "Name[ca]": "Quota de disc",
        "Name[cs]": "Kvóta disku",
        "Name[de]": "Speicherplatzkontingent",
        "Name[en_GB]": "Disk Quota",
        "Name[es]": "Cuota de disco",
        "Name[eu]": "Disko-kuota",
        "Name[fi]": "Levytilarajoitus",
        "Name[fr]": "Quota de disque",
        "Name[ia]": "Quota de disco",
        "Name[id]": "Quota Disk",
        "Name[is]": "Diskplásskvóti",
        "Name[it]": "Quota disco",
        "Name[ja]": "ディスククォータ",
        "Name[ka]": "დისკის კვოტა",
        "Name[ko]": "디스크 할당량",
        "Name[lt]": "Leidžiamas disko duomenų kiekis",
        "Name[nl]": "Schijfquota",
        "Name[nn]": "Disk­kvote",
        "Name[pl]": "Przydział dyskowy",
        "Name[pt]": "Quota do Disco",
        "Name[pt_BR]": "Quota de disco",
        "Name[ro]": "Cotă de disc",
        "Name[ru]": "Дисковые квоты",
        "Name[sk]": "Kvóty disku",
        "Name[sl]": "Diskovna kvota",
        "Name[sv]": "Diskkvot",
        "Name[tr]": "Disk Kotası",
        "Name[uk]": "Квота на диску",
        "Name[vi]": "Hạn ngạch đĩa",
        "Name[x-test]": "xxDisk Quotaxx",
        "Name[zh_CN]": "磁盘配额",
        "Name[zh_TW]": "磁碟配額",
        "ServiceTypes": [
            "Plasma/Applet"
        ],
        "Version": "2.0",
        "Website": "https://kde.org/plasma-desktop/"
    },
    "X-Plasma-API": "declarativeappletscript",
    "X-Plasma-MainScript": "ui/main.qml",
    "X-Plasma-NotificationArea": "true",
    "X-Plasma-NotificationAreaCategory": "SystemServices",
    "X-Plasma-StandAloneApp": true
}
